<svg width="38" height="42" viewBox="0 0 38 42" fill="none" xmlns="http://www.w3.org/2000/svg">
<path fill-rule="evenodd" clip-rule="evenodd" d="M36.687 14.7986C36.9926 15.321 37.7204 16.7141 37.9379 18.4633C38.1819 20.4236 37.8169 23.1785 34.8248 25.4326C34.7956 25.4681 34.7628 25.5014 34.7265 25.532C35.0777 27.6555 34.7294 31.2852 31.3699 33.0733C31.5096 33.8444 31.6029 35.1824 30.9171 36.3259C30.3783 37.2256 29.4876 37.817 28.2674 38.0875C27.6472 39.0484 25.4961 42.0388 22.8264 41.9996C21.406 41.9791 20.1223 41.1353 18.9997 39.4889C17.8775 41.1357 16.5937 41.9791 15.1729 41.9996C15.1562 42 15.139 42 15.1222 42C12.472 42 10.3483 39.0424 9.73219 38.0875C8.51191 37.817 7.62143 37.2253 7.08243 36.3259C6.3969 35.1824 6.48971 33.8446 6.62966 33.0733C3.25826 31.2786 2.91974 27.6289 3.27737 25.5087C0.191613 23.2407 -0.184284 20.4455 0.0618543 18.4633C0.279748 16.7141 1.00712 15.3206 1.31272 14.7986C1.09164 11.1592 1.80967 8.41871 3.44897 6.65069C4.7266 5.27237 6.21914 4.88246 6.9771 4.77261C8.13261 2.31841 10.0968 1.84319 11.2925 1.95901C13.5288 -0.133223 15.5973 -0.183135 16.9605 0.158994C17.8592 0.384662 18.5635 0.807204 18.9999 1.12651C19.4365 0.80763 20.1403 0.384662 21.0393 0.158994C22.4025 -0.182495 24.471 -0.132797 26.7073 1.95901C27.9016 1.84361 29.8667 2.31841 31.0227 4.77261C31.7806 4.88267 33.2732 5.27258 34.5508 6.65069C36.1897 8.41871 36.9081 11.1592 36.687 14.7986ZM33.3625 26.3881C33.4753 27.9094 33.2348 30.7144 30.2433 32.0019C29.8965 32.1512 29.7217 32.5422 29.841 32.9014C29.8461 32.917 30.3348 34.4755 29.675 35.5755C29.3173 36.1725 28.6524 36.5562 27.6999 36.7156C27.4875 36.751 27.3019 36.8798 27.1932 37.0662C26.6264 38.0378 24.7522 40.544 22.8767 40.544H22.8444C21.846 40.5286 20.889 39.7942 19.9943 38.359C19.9981 38.3338 20 38.3081 20 38.2822V2.71802C20 2.57042 19.9379 2.43317 19.8314 2.31904C20.1475 2.08494 20.6928 1.74688 21.3908 1.57166C22.754 1.22952 24.1187 1.63765 25.4542 2.78677L24.1348 4.77712C23.91 5.11588 23.9728 5.59574 24.2749 5.84835C24.397 5.95087 24.5394 6 24.6813 6C24.8897 6 25.0953 5.89366 25.229 5.69108L26.7305 3.42587C27.1759 3.35633 28.7929 3.27907 29.7792 5.54419C26.0471 7.4581 26 11.0185 26 11.1831C26 11.6337 26.3498 11.9971 26.7831 12H26.7887C27.2196 12 27.5715 11.6368 27.5773 11.1886C27.5794 11.0553 27.6644 7.91275 31.4603 6.59765C31.5585 6.56366 31.6459 6.51158 31.7203 6.44616C32.263 6.65064 32.915 7.01542 33.5106 7.6662C34.884 9.16717 35.4606 11.6111 35.2246 14.9305C35.2134 15.0913 35.2554 15.2519 35.3446 15.3863C35.354 15.4001 36.2685 16.7955 36.4987 18.6444C36.7734 20.8528 35.9548 22.7139 34.0641 24.1845C33.9449 24.2057 33.8289 24.254 33.7257 24.3307C32.433 25.2925 31.2639 25.6352 30.2533 25.3508C28.4527 24.8445 27.5455 22.5288 27.5369 22.5052C27.3847 22.1046 26.928 21.8997 26.5187 22.0486C26.1078 22.1965 25.8974 22.6423 26.0494 23.0435C26.0966 23.1683 27.2348 26.1072 29.8047 26.8368C30.188 26.9458 30.5787 27 30.9761 27C31.7475 27 32.5448 26.7956 33.3625 26.3881ZM15.154 40.544C16.1533 40.5285 17.1107 39.7936 18.0054 38.3571C18.0018 38.3324 18 38.3074 18 38.282V2.71802C18 2.57064 18.0619 2.43358 18.1682 2.31955C17.8436 2.07937 17.2775 1.72945 16.5538 1.55865C15.0385 1.20116 13.5224 1.77003 12.0473 3.25095C11.8672 3.43204 11.6062 3.50435 11.359 3.44249C11.3082 3.43055 11.1544 3.40026 10.9363 3.40026C10.2585 3.40026 8.95492 3.69119 8.14366 5.72754C8.03343 6.00376 7.76712 6.18506 7.47065 6.18506C7.408 6.18592 5.80948 6.22303 4.48874 7.66599C3.11512 9.16696 2.53832 11.6107 2.77469 14.9302C2.78594 15.0913 2.7439 15.2517 2.6547 15.3861C2.50689 15.6107 -0.922063 20.9604 4.48577 24.5813C4.74061 24.7522 4.86124 25.0653 4.78691 25.3637C4.73891 25.5603 3.65051 30.2347 7.75565 32.0017C8.10246 32.151 8.27681 32.542 8.15788 32.9012C8.15342 32.9148 7.65924 34.4753 8.32714 35.5812C8.68563 36.1746 9.34908 36.5564 10.2986 36.7156C10.5105 36.751 10.6966 36.8798 10.8053 37.0662C11.3755 38.0436 13.2765 40.5743 15.154 40.544ZM22.3913 25.2164C22.0735 24.9279 21.5566 24.9279 21.2388 25.2164C20.9204 25.5049 20.9204 25.9726 21.2388 26.2608C22.9367 27.7995 23.3195 29.3048 23.3683 30.2154C21.8325 31.6401 21.086 33.826 21.0407 33.9621C20.903 34.3751 21.126 34.8207 21.5389 34.9591C21.6216 34.9871 21.7062 35 21.7889 35C22.1187 35 22.4262 34.7918 22.5371 34.4615C22.7289 33.891 23.201 32.84 23.89 31.975L23.9026 31.9779C23.9686 31.9926 24.0352 32 24.1006 32C24.4658 32 24.7985 31.7758 24.8909 31.4401C24.8988 31.4118 24.9432 31.2426 24.9729 30.9638C25.3522 30.7244 25.7667 30.5775 26.2114 30.5775C26.6467 30.5775 27 30.2241 27 29.7887C27 29.3533 26.6465 29 26.2111 29C25.7298 29 25.284 29.0912 24.8729 29.2489C24.6316 28.1096 23.9814 26.6573 22.3913 25.2164ZM32.1119 18.0789C32.4555 17.9339 32.8354 18.1422 32.96 18.5449C33.0846 18.9478 32.9084 19.3928 32.5652 19.5397C32.4811 19.5752 31.4604 20 30.1745 20C28.8463 20 27.2354 19.5472 26.0807 17.7444C25.0962 16.207 24.6671 14.8732 24.3537 13.8988L24.3537 13.8988L24.3536 13.8987L24.3536 13.8987L24.353 13.8968C24.1625 13.3043 24.0433 12.9707 23.9329 12.7835C23.5552 13.795 23.0442 14.8066 22.3527 15.7044C22.2035 15.8988 21.9815 16 21.7575 16C21.5929 16 21.4278 15.9457 21.2888 15.8331C20.9597 15.5678 20.9038 15.0799 21.1629 14.7432C23.5258 11.6746 23.4845 6.83602 23.4838 6.78759C23.4778 6.35925 23.812 6.0064 24.2307 6.00026C24.6619 5.98912 24.9936 6.33675 24.9996 6.76508C25.0014 6.89994 25.0181 8.90132 24.4169 11.2355C25.0417 11.6341 25.3111 12.4719 25.5925 13.3467L25.5931 13.3486L25.5937 13.3505L25.5937 13.3505C25.8947 14.2865 26.2693 15.4512 27.1403 16.811C28.8183 19.4313 31.9777 18.1352 32.1119 18.0789ZM9 10C9 8.34586 10.3459 7 12 7C13.6541 7 15 8.34586 15 10C15 11.3037 14.164 12.4159 13 12.8286V18H14H14.2225C14.4087 18 14.5796 18.0842 14.7135 18.2247C14.8907 18.36 15 18.5455 15 18.7499V18.9989V19V23.1714C16.164 23.5841 17 24.6963 17 26C17 27.3037 16.164 28.4159 15 28.8286V30.1714C16.164 30.5841 17 31.6963 17 33C17 34.6541 15.6541 36 14 36C12.3459 36 11 34.6541 11 33C11 31.6963 11.836 30.5841 13 30.1714V28.8286C11.836 28.4159 11 27.3037 11 26C11 24.6963 11.836 23.5841 13 23.1714V20H12H9.82863C9.41587 21.164 8.30368 22 7 22C5.34586 22 4 20.6541 4 19C4 17.3459 5.34586 16 7 16C8.30368 16 9.41601 16.836 9.82871 18H11V12.8286C9.83598 12.4159 9 11.3037 9 10ZM14.7889 27.2755C14.6059 27.1078 14.3205 27 14 27C13.6795 27 13.3941 27.1079 13.211 27.2755C12.7845 27.0107 12.4999 26.538 12.4999 26C12.4999 25.1727 13.1727 24.4999 14 24.4999C14.8273 24.4999 15.5001 25.1727 15.5001 26C15.5001 26.538 15.2155 27.0107 14.7889 27.2755ZM13.211 31.7245C12.7845 31.9893 12.4999 32.462 12.4999 33C12.4999 33.8273 13.1727 34.5001 14 34.5001C14.8271 34.5001 15.4999 33.8273 15.5001 33C15.5001 32.4621 15.2156 31.9894 14.7892 31.7246C14.6063 31.8923 14.3209 32 14 32C13.6795 32 13.3941 31.8921 13.211 31.7245ZM8.28497 18.2265C8.02209 17.7913 7.5445 17.4999 7 17.4999C6.17271 17.4999 5.49989 18.1727 5.49989 19C5.49989 19.8273 6.17271 20.5001 7 20.5001C7.5445 20.5001 8.02209 20.2087 8.28497 19.7735C8.11103 19.5901 8 19.3116 8 19C8 18.6884 8.11103 18.4099 8.28497 18.2265ZM13.5001 10C13.5 10.5417 13.2115 11.0171 12.7801 11.2809C12.5968 11.1097 12.3154 11 12 11C11.6846 11 11.4032 11.1097 11.2198 11.2809C10.7884 11.0172 10.4999 10.5417 10.4999 10C10.4999 9.17271 11.1727 8.49989 12 8.49989C12.8273 8.49989 13.5001 9.17271 13.5001 10Z" fill="#768894"/>
</svg>
