<svg width="132" height="52" viewBox="0 0 132 52" fill="none" xmlns="http://www.w3.org/2000/svg">
<path d="M20.412 12.612H0.612V17.256H8.064V39H12.996V17.256H20.412V12.612ZM36.6933 30.072C36.6933 24.348 33.1653 20.604 27.8373 20.604C22.4013 20.604 18.8013 24.456 18.8013 30.072C18.8013 35.724 22.4733 39.468 27.7653 39.468C31.5093 39.468 34.6773 37.596 35.9733 34.464L32.0853 32.916C31.2933 34.464 29.9253 35.472 27.7653 35.472C25.6053 35.472 23.5173 34.392 23.2293 31.728H36.6933V30.072ZM27.7653 24.492C30.0693 24.492 31.7253 25.788 31.9053 28.488H23.3013C23.7333 25.896 25.3173 24.492 27.7653 24.492ZM55.3283 39C55.1483 38.424 55.0043 36.732 55.0043 34.968V28.128C55.0043 22.368 51.2243 20.604 47.1923 20.604C43.8443 20.604 40.9283 21.792 39.2363 24.96L42.6563 26.904C43.4843 25.284 44.8163 24.384 46.9043 24.384C48.9563 24.384 50.4323 25.248 50.4323 27.444V28.056H45.2483C41.3243 28.056 38.7683 30.072 38.7683 33.672C38.7683 37.344 41.5043 39.468 45.2483 39.468C47.8043 39.468 49.6403 38.424 50.5403 37.164C50.6123 37.956 50.7203 38.64 50.7923 39H55.3283ZM50.4683 31.62C50.4683 35.076 48.2003 35.94 46.5083 35.94C44.6003 35.94 43.5203 35.112 43.5203 33.6C43.5203 32.196 44.4923 31.26 46.3643 31.26H50.4683V31.62ZM79.9605 20.604C77.1525 20.604 75.1365 21.864 74.2365 23.844C73.1565 21.72 71.1045 20.604 68.4405 20.604C66.2445 20.604 64.4445 21.324 63.4365 22.764L63.2565 21.144H58.9005V39H63.6165V28.884C63.6165 25.968 65.2725 24.708 67.2165 24.708C69.2325 24.708 70.5285 26.004 70.5285 28.416V39H75.1365V28.884C75.1365 25.932 76.7925 24.708 78.7365 24.708C80.7525 24.708 82.0845 25.968 82.0845 28.452V39H86.6205V27.732C86.6205 23.124 83.8845 20.604 79.9605 20.604Z" fill="white"/>
<g clip-path="url(#clip0)">
<path opacity="0.35" d="M91.847 28.548C91.847 35.685 97.346 39.468 103.469 39.468C109.709 39.468 115.13 35.685 115.13 28.548V10.413H109.826V28.392C109.826 32.136 106.94 34.398 103.469 34.398C100.076 34.398 97.19 32.448 97.19 28.392V10.413H91.847V28.548Z" fill="black"/>
<mask id="path-6-inside-1" fill="white">
<path fill-rule="evenodd" clip-rule="evenodd" d="M121 34.5C117.962 34.5 115.5 32.0376 115.5 29C115.5 25.9624 117.962 23.5 121 23.5C124.038 23.5 126.5 25.9624 126.5 29C126.5 32.0376 124.038 34.5 121 34.5ZM115 37.618C116.701 38.8043 118.769 39.5 121 39.5C126.799 39.5 131.5 34.799 131.5 29C131.5 23.201 126.799 18.5 121 18.5C115.71 18.5 111.334 22.4116 110.606 27.5H110V51.5H115V37.618Z"/>
</mask>
<path d="M115 37.618L117.86 33.517L110 28.0342V37.618H115ZM110.606 27.5V32.5H114.942L115.556 28.208L110.606 27.5ZM110 27.5V22.5H105V27.5H110ZM110 51.5H105V56.5H110V51.5ZM115 51.5V56.5H120V51.5H115ZM110.5 29C110.5 34.799 115.201 39.5 121 39.5V29.5C120.724 29.5 120.5 29.2761 120.5 29H110.5ZM121 18.5C115.201 18.5 110.5 23.201 110.5 29H120.5C120.5 28.7239 120.724 28.5 121 28.5V18.5ZM131.5 29C131.5 23.201 126.799 18.5 121 18.5V28.5C121.276 28.5 121.5 28.7239 121.5 29H131.5ZM121 39.5C126.799 39.5 131.5 34.799 131.5 29H121.5C121.5 29.2761 121.276 29.5 121 29.5V39.5ZM121 34.5C119.825 34.5 118.749 34.137 117.86 33.517L112.14 41.7189C114.652 43.4715 117.713 44.5 121 44.5V34.5ZM126.5 29C126.5 32.0376 124.038 34.5 121 34.5V44.5C129.56 44.5 136.5 37.5604 136.5 29H126.5ZM121 23.5C124.038 23.5 126.5 25.9624 126.5 29H136.5C136.5 20.4396 129.56 13.5 121 13.5V23.5ZM115.556 28.208C115.937 25.5473 118.233 23.5 121 23.5V13.5C113.187 13.5 106.732 19.2758 105.657 26.792L115.556 28.208ZM110 32.5H110.606V22.5H110V32.5ZM115 51.5V27.5H105V51.5H115ZM115 46.5H110V56.5H115V46.5ZM110 37.618V51.5H120V37.618H110Z" fill="#595792" mask="url(#path-6-inside-1)"/>
</g>
<defs>
<clipPath id="clip0">
<rect x="131.5" y="0.5" width="51" height="43" transform="rotate(90 131.5 0.5)" fill="white"/>
</clipPath>
</defs>
</svg>
